<svg width="24" height="24" viewBox="0 0 24 24" fill="none" xmlns="http://www.w3.org/2000/svg">
<path d="M17 1L22 6V23H2V1H17Z" stroke="#1574F6" stroke-miterlimit="10" stroke-linecap="round" stroke-linejoin="round"/>
<path d="M17 1V6H22" stroke="#1574F6" stroke-miterlimit="10" stroke-linecap="round" stroke-linejoin="round"/>
<path d="M7 5H12" stroke="#1574F6" stroke-miterlimit="10" stroke-linecap="round" stroke-linejoin="round"/>
<path d="M7 9H12" stroke="#1574F6" stroke-miterlimit="10" stroke-linecap="round" stroke-linejoin="round"/>
<path d="M7 18L10 15L12 17L17 13M17 13V16M17 13H14" stroke="#1574F6" stroke-linecap="round" stroke-linejoin="round"/>
</svg>
