<svg width="241" height="86" viewBox="0 0 241 86" fill="none" xmlns="http://www.w3.org/2000/svg">
<path d="M16.3894 17.8543V20.1518H4.85827V17.8543H16.3894ZM5.29727 8.69383V30H2.47304V8.69383H5.29727ZM18.8478 8.69383V30H16.0382V8.69383H18.8478ZM37.4029 27.7026V30H26.1205V27.7026H37.4029ZM26.6912 8.69383V30H23.867V8.69383H26.6912ZM35.9103 17.8543V20.1518H26.1205V17.8543H35.9103ZM37.2565 8.69383V11.0059H26.1205V8.69383H37.2565ZM31.2715 2.81123L34.9006 6.80613V6.95246H32.647L30.452 4.47943L28.2716 6.95246H26.0474V6.7915L29.6325 2.81123H31.2715ZM28.7692 33.4535C28.7692 33.0145 28.9009 32.6438 29.1643 32.3413C29.4374 32.0389 29.8374 31.8877 30.3642 31.8877C30.8813 31.8877 31.2764 32.0389 31.5495 32.3413C31.8324 32.6438 31.9739 33.0145 31.9739 33.4535C31.9739 33.873 31.8324 34.229 31.5495 34.5217C31.2764 34.8241 30.8813 34.9753 30.3642 34.9753C29.8374 34.9753 29.4374 34.8241 29.1643 34.5217C28.9009 34.229 28.7692 33.873 28.7692 33.4535ZM55.6214 8.69383V30H52.841V8.69383H55.6214ZM62.4698 8.69383V11.0059H46.0073V8.69383H62.4698ZM79.5469 17.8543V20.1518H68.0158V17.8543H79.5469ZM68.4548 8.69383V30H65.6306V8.69383H68.4548ZM82.0053 8.69383V30H79.1957V8.69383H82.0053ZM103.429 18.6738V20.0201C103.429 21.62 103.229 23.054 102.829 24.3223C102.429 25.5905 101.853 26.6685 101.102 27.5562C100.351 28.444 99.4483 29.122 98.3947 29.5903C97.3508 30.0585 96.1802 30.2927 94.8827 30.2927C93.6242 30.2927 92.4682 30.0585 91.4146 29.5903C90.3707 29.122 89.4635 28.444 88.6928 27.5562C87.9318 26.6685 87.3416 25.5905 86.9221 24.3223C86.5026 23.054 86.2929 21.62 86.2929 20.0201V18.6738C86.2929 17.0739 86.4978 15.6447 86.9075 14.3862C87.327 13.118 87.9172 12.04 88.6781 11.1522C89.4391 10.2547 90.3415 9.57184 91.3853 9.10357C92.4389 8.6353 93.5949 8.40117 94.8534 8.40117C96.1509 8.40117 97.3216 8.6353 98.3654 9.10357C99.419 9.57184 100.321 10.2547 101.073 11.1522C101.834 12.04 102.414 13.118 102.814 14.3862C103.224 15.6447 103.429 17.0739 103.429 18.6738ZM100.634 20.0201V18.6445C100.634 17.3763 100.502 16.2544 100.238 15.2788C99.9848 14.3033 99.6093 13.4838 99.1117 12.8204C98.6142 12.1571 98.0045 11.6546 97.2825 11.3132C96.5704 10.9718 95.7607 10.801 94.8534 10.801C93.9754 10.801 93.1803 10.9718 92.4682 11.3132C91.7658 11.6546 91.1609 12.1571 90.6536 12.8204C90.1561 13.4838 89.7708 14.3033 89.4976 15.2788C89.2244 16.2544 89.0879 17.3763 89.0879 18.6445V20.0201C89.0879 21.298 89.2244 22.4297 89.4976 23.415C89.7708 24.3905 90.161 25.2149 90.6683 25.888C91.1853 26.5514 91.795 27.0538 92.4974 27.3953C93.2096 27.7367 94.0047 27.9074 94.8827 27.9074C95.7997 27.9074 96.6143 27.7367 97.3264 27.3953C98.0386 27.0538 98.6386 26.5514 99.1264 25.888C99.6239 25.2149 99.9995 24.3905 100.253 23.415C100.507 22.4297 100.634 21.298 100.634 20.0201ZM89.5269 7.24513L93.7852 3.41119H96.0094L100.268 7.24513H97.385L94.8973 4.93306L92.4096 7.24513H89.5269ZM99.1849 4.65503L101.248 0.879622H104.175L101.234 4.65503H99.1849ZM124.047 8.69383V30H121.208L110.482 13.5667V30H107.658V8.69383H110.482L121.252 25.171V8.69383H124.047ZM144.797 19.3908V27.1904C144.534 27.5806 144.114 28.0196 143.539 28.5074C142.963 28.9854 142.168 29.4049 141.153 29.7659C140.149 30.1171 138.851 30.2927 137.261 30.2927C135.963 30.2927 134.768 30.0683 133.676 29.6195C132.593 29.161 131.651 28.4976 130.851 27.6294C130.061 26.7514 129.447 25.688 129.008 24.4393C128.578 23.1809 128.364 21.7565 128.364 20.1664V18.5128C128.364 16.9227 128.549 15.5032 128.92 14.2545C129.3 13.0058 129.856 11.9473 130.588 11.0791C131.32 10.2011 132.217 9.53769 133.281 9.08893C134.344 8.63042 135.563 8.40117 136.939 8.40117C138.568 8.40117 139.929 8.68408 141.022 9.2499C142.124 9.80597 142.983 10.5767 143.597 11.562C144.221 12.5473 144.621 13.6692 144.797 14.9276H141.973C141.846 14.157 141.592 13.4546 141.212 12.8204C140.841 12.1863 140.309 11.679 139.617 11.2986C138.924 10.9083 138.032 10.7132 136.939 10.7132C135.954 10.7132 135.1 10.8937 134.378 11.2547C133.656 11.6156 133.061 12.1327 132.593 12.8058C132.125 13.4789 131.773 14.2935 131.539 15.2496C131.315 16.2056 131.203 17.2836 131.203 18.4835V20.1664C131.203 21.3956 131.344 22.4931 131.627 23.4589C131.92 24.4247 132.334 25.249 132.871 25.9319C133.407 26.6051 134.046 27.1172 134.788 27.4684C135.539 27.8196 136.368 27.9952 137.276 27.9952C138.28 27.9952 139.095 27.9123 139.719 27.7465C140.344 27.5709 140.831 27.366 141.183 27.1319C141.534 26.888 141.802 26.6587 141.987 26.4441V21.6736H137.056V19.3908H144.797ZM163.118 30H158.669L158.699 27.7026H163.118C164.64 27.7026 165.908 27.3855 166.923 26.7514C167.937 26.1075 168.698 25.21 169.206 24.0589C169.723 22.8979 169.981 21.5419 169.981 19.9908V18.6884C169.981 17.469 169.835 16.3861 169.542 15.4398C169.249 14.4838 168.82 13.6789 168.254 13.0253C167.689 12.3619 166.996 11.8595 166.176 11.5181C165.367 11.1766 164.435 11.0059 163.381 11.0059H158.582V8.69383H163.381C164.776 8.69383 166.05 8.92797 167.201 9.39624C168.352 9.85475 169.342 10.523 170.171 11.401C171.01 12.2693 171.654 13.3229 172.103 14.5618C172.552 15.791 172.776 17.1763 172.776 18.7177V19.9908C172.776 21.5322 172.552 22.9223 172.103 24.1613C171.654 25.3905 171.005 26.4392 170.157 27.3075C169.318 28.1757 168.303 28.844 167.113 29.3122C165.933 29.7707 164.601 30 163.118 30ZM160.177 8.69383V30H157.352V8.69383H160.177ZM164.303 18.0445V20.2688H154.982V18.0445H164.303ZM184.585 10.5815L177.532 30H174.649L182.771 8.69383H184.629L184.585 10.5815ZM190.497 30L183.429 10.5815L183.385 8.69383H185.244L193.394 30H190.497ZM190.131 22.1126V24.4247H178.161V22.1126H190.131ZM182.58 33.5998C182.58 33.1608 182.712 32.7901 182.975 32.4877C183.249 32.1852 183.649 32.034 184.175 32.034C184.692 32.034 185.088 32.1852 185.361 32.4877C185.644 32.7901 185.785 33.1608 185.785 33.5998C185.785 34.0193 185.644 34.3754 185.361 34.668C185.088 34.9705 184.692 35.1217 184.175 35.1217C183.649 35.1217 183.249 34.9705 182.975 34.668C182.712 34.3754 182.58 34.0193 182.58 33.5998ZM199.277 8.69383V30H196.453V8.69383H199.277ZM224.768 27.7026V30H214.115V27.7026H224.768ZM214.671 8.69383V30H211.847V8.69383H214.671ZM225.471 8.69383L231.002 19.3908L236.548 8.69383H239.753L232.407 22.0395V30H229.583V22.0395L222.237 8.69383H225.471ZM229.568 7.28903L232.407 2.98683H235.67L231.748 7.28903H229.568Z" fill="#F05A22"/>
<path d="M143.813 59.574C143.89 59.4972 143.928 59.3965 143.928 59.2694C143.928 59.1794 143.91 59.1026 143.869 59.0443C143.83 58.986 143.768 58.9331 143.682 58.8907C143.611 58.8536 143.534 58.8298 143.463 58.8218C143.38 58.8112 143.28 58.8059 143.158 58.8059H142.478V60.4718H142.919V59.8627H143.096L143.641 60.4745H144.2L143.526 59.7594C143.641 59.7117 143.742 59.6508 143.813 59.574ZM143.413 59.4257C143.398 59.4601 143.372 59.4813 143.336 59.5025C143.309 59.5263 143.265 59.5422 143.209 59.5502C143.15 59.5607 143.09 59.5687 143.025 59.5687H142.919V59.0999H143.055C143.123 59.0999 143.179 59.1026 143.215 59.1052C143.259 59.1105 143.298 59.1211 143.33 59.137C143.369 59.1582 143.401 59.1794 143.416 59.2085C143.428 59.2376 143.44 59.2721 143.44 59.3065C143.437 59.3515 143.425 59.3912 143.413 59.4257ZM144.514 58.5014C144.15 58.173 143.709 58.0114 143.194 58.0114C142.679 58.0114 142.235 58.173 141.871 58.5014C141.507 58.8271 141.329 59.2191 141.329 59.6852C141.329 60.1434 141.51 60.538 141.871 60.8638C142.232 61.1922 142.676 61.3537 143.194 61.3537C143.709 61.3537 144.15 61.1922 144.514 60.8638C144.878 60.538 145.062 60.1434 145.062 59.6852C145.062 59.2191 144.878 58.8271 144.514 58.5014ZM144.224 60.6069C143.937 60.8638 143.594 60.9962 143.194 60.9962C142.791 60.9962 142.448 60.8611 142.164 60.6069C141.883 60.3473 141.737 60.0428 141.737 59.6852C141.737 59.325 141.885 59.0152 142.164 58.7556C142.448 58.4987 142.791 58.369 143.194 58.369C143.594 58.369 143.937 58.4987 144.224 58.7556C144.505 59.0152 144.65 59.3224 144.65 59.6852C144.65 60.0401 144.505 60.3447 144.224 60.6069ZM127.217 70.5835L122.856 59.4919H115.038L122.622 76.2565H131.542L139.183 59.4919H131.515L127.217 70.5835ZM62.891 62.4449C62.8732 62.4396 62.8555 62.4343 62.8377 62.429C63.3587 62.2277 63.7672 62.0635 64.0544 61.8914C65.7921 60.8214 66.9467 59.0522 66.9467 57.0235C66.9467 53.8083 64.0603 51.1996 60.4724 51.1652L60.8809 51.1626L44.9541 51.1546V76.2565H58.0271C58.2728 76.2565 58.5156 76.2512 58.7583 76.2459H61.8874L62.2959 76.2379C66.5559 76.1029 69.3475 72.9777 69.3475 69.1348C69.3475 65.7925 66.3605 63.2103 62.891 62.4449ZM52.5741 55.7814H56.3249C56.7956 55.7947 57.213 55.8529 57.5919 55.9562C58.4179 56.2582 59.0543 56.8858 59.306 57.6671C59.3593 57.8631 59.3859 58.0564 59.3859 58.2524C59.3859 58.7291 59.3 59.1555 59.1402 59.5316C58.9478 59.9024 58.6606 60.2229 58.3054 60.4745C58.187 60.546 58.0449 60.6175 57.8998 60.6784C57.3817 60.8929 56.8874 61.0121 56.4048 61.0333C55.9193 61.0571 55.6884 61.0677 54.4835 61.0677H52.5741V55.7814ZM59.75 70.9728C59.0603 71.3728 58.2402 71.6058 57.3551 71.6138H57.3462H52.5741V65.382H56.618C56.9081 65.382 57.1508 65.3899 57.29 65.3899C58.0389 65.4058 58.6251 65.4906 59.0543 65.6336C59.1639 65.668 59.2764 65.7078 59.3889 65.7475C60.4901 66.2507 61.245 67.273 61.245 68.4542C61.245 69.503 60.65 70.4246 59.75 70.9728ZM85.4342 59.5343L78.8474 67.0664V51.1493H71.4405V76.2565H78.8444L82.0298 72.6361L84.9901 76.2565H93.4301L86.3134 67.702L93.4538 59.5343H85.4342ZM112.593 60.1911C111.083 59.2059 107.412 58.7159 104.111 58.7159C102.767 58.7159 101.441 58.8457 100.112 59.0284C98.4598 59.2588 96.5918 59.6985 95.4343 60.1302L97.5539 63.9704C98.9779 63.1838 100.319 62.8157 102.125 62.572C103.108 62.4369 104.164 62.4184 105.082 62.5296C105.722 62.6064 106.323 62.7812 106.775 63.0885C107.382 63.4725 107.681 64.0737 107.681 64.9053V65.0324C104.736 65.0986 101.805 65.2416 99.3716 65.8773C96.8612 66.5367 94.2413 68.5336 94.2413 71.1768C94.2413 74.151 97.1425 76.561 100.467 76.561C100.556 76.561 101.379 76.5743 101.379 76.5743C103.552 76.463 105.953 75.8221 107.649 74.7945L108.886 76.2803H114.86V64.6034C114.857 62.5826 114.102 61.1763 112.593 60.1911ZM107.646 71.6826C107.646 71.6826 106.115 73.1419 104.153 73.1419C104.031 73.1419 103.925 73.1366 103.821 73.1234C103.768 73.1207 103.72 73.1101 103.67 73.1075C103.64 73.1048 103.605 73.0969 103.575 73.0942C102.421 72.8903 101.553 71.9819 101.553 70.8907C101.553 69.8049 102.415 68.8991 103.563 68.6925C103.584 68.6872 103.605 68.6819 103.629 68.674C104.647 68.4701 107.646 68.2211 107.646 68.2211V71.6826Z" fill="#F05A22"/>
<path d="M151.562 59.0946H150.768V76.5742H151.562V59.0946Z" fill="#868E96"/>
<path d="M159.541 57.6833H167.55C170.256 57.6833 172.481 58.36 174.224 59.7133C175.985 61.0481 176.866 62.9206 176.866 65.3307V69.4741C176.866 71.9954 176.013 73.905 174.307 75.2027C172.602 76.5004 170.358 77.1493 167.577 77.1493H159.541C159.337 77.1493 159.161 77.0751 159.012 76.9268C158.864 76.7785 158.79 76.6024 158.79 76.3985V58.4341C158.79 58.2302 158.864 58.0541 159.012 57.9058C159.161 57.7575 159.337 57.6833 159.541 57.6833ZM165.742 63.106V71.7266H167.55C168.18 71.7266 168.681 71.5412 169.051 71.1705C169.441 70.7811 169.635 70.2157 169.635 69.4741V65.3307C169.635 63.8475 168.94 63.106 167.55 63.106H165.742ZM186.981 71.4485H194.684C194.888 71.4485 195.064 71.5227 195.213 71.671C195.361 71.8193 195.435 71.9954 195.435 72.1994V76.3985C195.435 76.6024 195.361 76.7785 195.213 76.9268C195.064 77.0751 194.888 77.1493 194.684 77.1493H180.669C180.465 77.1493 180.289 77.0751 180.14 76.9268C179.992 76.7785 179.918 76.6024 179.918 76.3985V58.4341C179.918 58.2302 179.992 58.0541 180.14 57.9058C180.289 57.7575 180.465 57.6833 180.669 57.6833H186.231C186.434 57.6833 186.611 57.7575 186.759 57.9058C186.907 58.0541 186.981 58.2302 186.981 58.4341V71.4485Z" fill="#AEAEAE"/>
</svg>
